-- Merging decision tree log ---
manifest
ADDED from C:\Users\codyj\Desktop\school-files\sem2\Android\Week 5\app\src\main\AndroidManifest.xml:2:1-24:12
INJECTED from C:\Users\codyj\Desktop\school-files\sem2\Android\Week 5\app\src\main\AndroidManifest.xml:2:1-24:12
INJECTED from C:\Users\codyj\Desktop\school-files\sem2\Android\Week 5\app\src\main\AndroidManifest.xml:2:1-24:12
INJECTED from C:\Users\codyj\Desktop\school-files\sem2\Android\Week 5\app\src\main\AndroidManifest.xml:2:1-24:12
MERGED from [com.android.support:appcompat-v7:28.0.0] C:\Users\codyj\.gradle\caches\transforms-1\files-1.1\appcompat-v7-28.0.0.aar\bbdfe137ebc935382a0f4b9873411756\AndroidManifest.xml:17:1-22:12
MERGED from [com.android.support.constraint:constraint-layout:1.1.3] C:\Users\codyj\.gradle\caches\transforms-1\files-1.1\constraint-layout-1.1.3.aar\4922d374d591449569508a18ee787220\AndroidManifest.xml:2:1-11:12
MERGED from [com.android.support:support-fragment:28.0.0] C:\Users\codyj\.gradle\caches\transforms-1\files-1.1\support-fragment-28.0.0.aar\6cfc26de441f6226e5e221243318ea8b\AndroidManifest.xml:17:1-22:12
MERGED from [com.android.support:animated-vector-drawable:28.0.0] C:\Users\codyj\.gradle\caches\transforms-1\files-1.1\animated-vector-drawable-28.0.0.aar\dfa506eb639a59cbfbfccd93abee171e\AndroidManifest.xml:17:1-22:12
MERGED from [com.android.support:support-core-ui:28.0.0] C:\Users\codyj\.gradle\caches\transforms-1\files-1.1\support-core-ui-28.0.0.aar\ab6bb5067992543ab3de01bc0267f78a\AndroidManifest.xml:17:1-22:12
MERGED from [com.android.support:support-core-utils:28.0.0] C:\Users\codyj\.gradle\caches\transforms-1\files-1.1\support-core-utils-28.0.0.aar\86a42006d4e0431b008c34e953db8235\AndroidManifest.xml:17:1-22:12
MERGED from [com.android.support:support-vector-drawable:28.0.0] C:\Users\codyj\.gradle\caches\transforms-1\files-1.1\support-vector-drawable-28.0.0.aar\cffb7158842bb1a00f1804ac0614353d\AndroidManifest.xml:17:1-22:12
MERGED from [com.android.support:loader:28.0.0] C:\Users\codyj\.gradle\caches\transforms-1\files-1.1\loader-28.0.0.aar\bf0d32a0a14a5f901f7c604e51033e8c\AndroidManifest.xml:17:1-22:12
MERGED from [com.android.support:viewpager:28.0.0] C:\Users\codyj\.gradle\caches\transforms-1\files-1.1\viewpager-28.0.0.aar\387bb0e51759280cb3f2f636662c8136\AndroidManifest.xml:17:1-22:12
MERGED from [com.android.support:coordinatorlayout:28.0.0] C:\Users\codyj\.gradle\caches\transforms-1\files-1.1\coordinatorlayout-28.0.0.aar\9bae028c7aa26ac336c3456479fc8f23\AndroidManifest.xml:17:1-22:12
MERGED from [com.android.support:drawerlayout:28.0.0] C:\Users\codyj\.gradle\caches\transforms-1\files-1.1\drawerlayout-28.0.0.aar\11ca9fa66fe899b5332cff31763a859b\AndroidManifest.xml:17:1-22:12
MERGED from [com.android.support:slidingpanelayout:28.0.0] C:\Users\codyj\.gradle\caches\transforms-1\files-1.1\slidingpanelayout-28.0.0.aar\72b45bfbded3050d74c3660bdb19ae86\AndroidManifest.xml:17:1-22:12
MERGED from [com.android.support:customview:28.0.0] C:\Users\codyj\.gradle\caches\transforms-1\files-1.1\customview-28.0.0.aar\b3faa65e2eb771ceb5bbb8b34bb505bf\AndroidManifest.xml:17:1-22:12
MERGED from [com.android.support:swiperefreshlayout:28.0.0] C:\Users\codyj\.gradle\caches\transforms-1\files-1.1\swiperefreshlayout-28.0.0.aar\40516c3439806efc3f4526980f675a6d\AndroidManifest.xml:17:1-22:12
MERGED from [com.android.support:asynclayoutinflater:28.0.0] C:\Users\codyj\.gradle\caches\transforms-1\files-1.1\asynclayoutinflater-28.0.0.aar\9502e4f616d233b75540d3341e004f99\AndroidManifest.xml:17:1-22:12
MERGED from [com.android.support:support-compat:28.0.0] C:\Users\codyj\.gradle\caches\transforms-1\files-1.1\support-compat-28.0.0.aar\58febeedaf49645857a885d3abfe2077\AndroidManifest.xml:17:1-24:12
MERGED from [com.android.support:versionedparcelable:28.0.0] C:\Users\codyj\.gradle\caches\transforms-1\files-1.1\versionedparcelable-28.0.0.aar\7594fbb4b5618c246d8558190a2293b5\AndroidManifest.xml:17:1-25:12
MERGED from [com.android.support:cursoradapter:28.0.0] C:\Users\codyj\.gradle\caches\transforms-1\files-1.1\cursoradapter-28.0.0.aar\ebc68006501ab2e0e2136803f11a0e33\AndroidManifest.xml:17:1-22:12
MERGED from [android.arch.lifecycle:runtime:1.1.1] C:\Users\codyj\.gradle\caches\transforms-1\files-1.1\runtime-1.1.1.aar\8fec08b82695614b02165717a25abb4d\AndroidManifest.xml:17:1-22:12
MERGED from [com.android.support:documentfile:28.0.0] C:\Users\codyj\.gradle\caches\transforms-1\files-1.1\documentfile-28.0.0.aar\20b6c96cf511ea2b6797996690792181\AndroidManifest.xml:17:1-22:12
MERGED from [com.android.support:localbroadcastmanager:28.0.0] C:\Users\codyj\.gradle\caches\transforms-1\files-1.1\localbroadcastmanager-28.0.0.aar\bf0d4eb4e613215f88a7be638c35cc28\AndroidManifest.xml:17:1-22:12
MERGED from [com.android.support:print:28.0.0] C:\Users\codyj\.gradle\caches\transforms-1\files-1.1\print-28.0.0.aar\6367716889f1f39d407abb95d5136e46\AndroidManifest.xml:17:1-22:12
MERGED from [android.arch.lifecycle:viewmodel:1.1.1] C:\Users\codyj\.gradle\caches\transforms-1\files-1.1\viewmodel-1.1.1.aar\7370f606a2ec2ae1eb8ce780230a58b9\AndroidManifest.xml:17:1-22:12
MERGED from [android.arch.lifecycle:livedata:1.1.1] C:\Users\codyj\.gradle\caches\transforms-1\files-1.1\livedata-1.1.1.aar\821753ee1b0feb61ee5c2665fa06bbf2\AndroidManifest.xml:17:1-22:12
MERGED from [android.arch.lifecycle:livedata-core:1.1.1] C:\Users\codyj\.gradle\caches\transforms-1\files-1.1\livedata-core-1.1.1.aar\c15146a2327f3869e6d059e8499e032e\AndroidManifest.xml:17:1-22:12
MERGED from [android.arch.core:runtime:1.1.1] C:\Users\codyj\.gradle\caches\transforms-1\files-1.1\runtime-1.1.1.aar\bd321d740eb6b8b2cfaf906ba580a89f\AndroidManifest.xml:17:1-22:12
MERGED from [com.android.support:interpolator:28.0.0] C:\Users\codyj\.gradle\caches\transforms-1\files-1.1\interpolator-28.0.0.aar\441cee68d2aa0440a40f0a85f69a834f\AndroidManifest.xml:17:1-22:12
INJECTED from C:\Users\codyj\Desktop\school-files\sem2\Android\Week 5\app\src\main\AndroidManifest.xml:2:1-24:12
INJECTED from C:\Users\codyj\Desktop\school-files\sem2\Android\Week 5\app\src\main\AndroidManifest.xml:2:1-24:12
INJECTED from C:\Users\codyj\Desktop\school-files\sem2\Android\Week 5\app\src\main\AndroidManifest.xml:2:1-24:12
	package
		ADDED from C:\Users\codyj\Desktop\school-files\sem2\Android\Week 5\app\src\main\AndroidManifest.xml:3:5-34
		INJECTED from C:\Users\codyj\Desktop\school-files\sem2\Android\Week 5\app\src\main\AndroidManifest.xml
		INJECTED from C:\Users\codyj\Desktop\school-files\sem2\Android\Week 5\app\src\main\AndroidManifest.xml
	android:versionName
		INJECTED from C:\Users\codyj\Desktop\school-files\sem2\Android\Week 5\app\src\main\AndroidManifest.xml
		ADDED from C:\Users\codyj\Desktop\school-files\sem2\Android\Week 5\app\src\main\AndroidManifest.xml:2:1-24:12
		INJECTED from C:\Users\codyj\Desktop\school-files\sem2\Android\Week 5\app\src\main\AndroidManifest.xml
	android:versionCode
		INJECTED from C:\Users\codyj\Desktop\school-files\sem2\Android\Week 5\app\src\main\AndroidManifest.xml
		ADDED from C:\Users\codyj\Desktop\school-files\sem2\Android\Week 5\app\src\main\AndroidManifest.xml:2:1-24:12
		INJECTED from C:\Users\codyj\Desktop\school-files\sem2\Android\Week 5\app\src\main\AndroidManifest.xml
	xmlns:android
		ADDED from C:\Users\codyj\Desktop\school-files\sem2\Android\Week 5\app\src\main\AndroidManifest.xml:2:11-69
application
ADDED from C:\Users\codyj\Desktop\school-files\sem2\Android\Week 5\app\src\main\AndroidManifest.xml:5:5-22:19
MERGED from [com.android.support.constraint:constraint-layout:1.1.3] C:\Users\codyj\.gradle\caches\transforms-1\files-1.1\constraint-layout-1.1.3.aar\4922d374d591449569508a18ee787220\AndroidManifest.xml:9:5-20
MERGED from [com.android.support.constraint:constraint-layout:1.1.3] C:\Users\codyj\.gradle\caches\transforms-1\files-1.1\constraint-layout-1.1.3.aar\4922d374d591449569508a18ee787220\AndroidManifest.xml:9:5-20
MERGED from [com.android.support:support-compat:28.0.0] C:\Users\codyj\.gradle\caches\transforms-1\files-1.1\support-compat-28.0.0.aar\58febeedaf49645857a885d3abfe2077\AndroidManifest.xml:22:5-94
MERGED from [com.android.support:support-compat:28.0.0] C:\Users\codyj\.gradle\caches\transforms-1\files-1.1\support-compat-28.0.0.aar\58febeedaf49645857a885d3abfe2077\AndroidManifest.xml:22:5-94
MERGED from [com.android.support:versionedparcelable:28.0.0] C:\Users\codyj\.gradle\caches\transforms-1\files-1.1\versionedparcelable-28.0.0.aar\7594fbb4b5618c246d8558190a2293b5\AndroidManifest.xml:22:5-23:19
MERGED from [com.android.support:versionedparcelable:28.0.0] C:\Users\codyj\.gradle\caches\transforms-1\files-1.1\versionedparcelable-28.0.0.aar\7594fbb4b5618c246d8558190a2293b5\AndroidManifest.xml:22:5-23:19
	android:appComponentFactory
		ADDED from [com.android.support:support-compat:28.0.0] C:\Users\codyj\.gradle\caches\transforms-1\files-1.1\support-compat-28.0.0.aar\58febeedaf49645857a885d3abfe2077\AndroidManifest.xml:22:18-91
	android:supportsRtl
		ADDED from C:\Users\codyj\Desktop\school-files\sem2\Android\Week 5\app\src\main\AndroidManifest.xml:10:9-35
	android:label
		ADDED from C:\Users\codyj\Desktop\school-files\sem2\Android\Week 5\app\src\main\AndroidManifest.xml:8:9-41
	android:roundIcon
		ADDED from C:\Users\codyj\Desktop\school-files\sem2\Android\Week 5\app\src\main\AndroidManifest.xml:9:9-54
	android:icon
		ADDED from C:\Users\codyj\Desktop\school-files\sem2\Android\Week 5\app\src\main\AndroidManifest.xml:7:9-43
	android:allowBackup
		ADDED from C:\Users\codyj\Desktop\school-files\sem2\Android\Week 5\app\src\main\AndroidManifest.xml:6:9-35
	android:theme
		ADDED from C:\Users\codyj\Desktop\school-files\sem2\Android\Week 5\app\src\main\AndroidManifest.xml:11:9-40
activity#com.codypedro.lab13.ImageActivity
ADDED from C:\Users\codyj\Desktop\school-files\sem2\Android\Week 5\app\src\main\AndroidManifest.xml:12:9-60
	android:name
		ADDED from C:\Users\codyj\Desktop\school-files\sem2\Android\Week 5\app\src\main\AndroidManifest.xml:12:19-48
activity#com.codypedro.lab13.AboutActivity
ADDED from C:\Users\codyj\Desktop\school-files\sem2\Android\Week 5\app\src\main\AndroidManifest.xml:13:9-51
	android:name
		ADDED from C:\Users\codyj\Desktop\school-files\sem2\Android\Week 5\app\src\main\AndroidManifest.xml:13:19-48
activity#com.codypedro.lab13.DetailsActivity
ADDED from C:\Users\codyj\Desktop\school-files\sem2\Android\Week 5\app\src\main\AndroidManifest.xml:14:9-53
	android:name
		ADDED from C:\Users\codyj\Desktop\school-files\sem2\Android\Week 5\app\src\main\AndroidManifest.xml:14:19-50
activity#com.codypedro.lab13.MainActivity
ADDED from C:\Users\codyj\Desktop\school-files\sem2\Android\Week 5\app\src\main\AndroidManifest.xml:15:9-21:20
	android:name
		ADDED from C:\Users\codyj\Desktop\school-files\sem2\Android\Week 5\app\src\main\AndroidManifest.xml:15:19-47
intent-filter#action:name:android.intent.action.MAIN+category:name:android.intent.category.LAUNCHER
ADDED from C:\Users\codyj\Desktop\school-files\sem2\Android\Week 5\app\src\main\AndroidManifest.xml:16:13-20:29
action#android.intent.action.MAIN
ADDED from C:\Users\codyj\Desktop\school-files\sem2\Android\Week 5\app\src\main\AndroidManifest.xml:17:17-69
	android:name
		ADDED from C:\Users\codyj\Desktop\school-files\sem2\Android\Week 5\app\src\main\AndroidManifest.xml:17:25-66
category#android.intent.category.LAUNCHER
ADDED from C:\Users\codyj\Desktop\school-files\sem2\Android\Week 5\app\src\main\AndroidManifest.xml:19:17-77
	android:name
		ADDED from C:\Users\codyj\Desktop\school-files\sem2\Android\Week 5\app\src\main\AndroidManifest.xml:19:27-74
uses-sdk
INJECTED from C:\Users\codyj\Desktop\school-files\sem2\Android\Week 5\app\src\main\AndroidManifest.xml reason: use-sdk injection requested
INJECTED from C:\Users\codyj\Desktop\school-files\sem2\Android\Week 5\app\src\main\AndroidManifest.xml
INJECTED from C:\Users\codyj\Desktop\school-files\sem2\Android\Week 5\app\src\main\AndroidManifest.xml
MERGED from [com.android.support:appcompat-v7:28.0.0] C:\Users\codyj\.gradle\caches\transforms-1\files-1.1\appcompat-v7-28.0.0.aar\bbdfe137ebc935382a0f4b9873411756\AndroidManifest.xml:20:5-44
MERGED from [com.android.support:appcompat-v7:28.0.0] C:\Users\codyj\.gradle\caches\transforms-1\files-1.1\appcompat-v7-28.0.0.aar\bbdfe137ebc935382a0f4b9873411756\AndroidManifest.xml:20:5-44
MERGED from [com.android.support.constraint:constraint-layout:1.1.3] C:\Users\codyj\.gradle\caches\transforms-1\files-1.1\constraint-layout-1.1.3.aar\4922d374d591449569508a18ee787220\AndroidManifest.xml:5:5-7:41
MERGED from [com.android.support.constraint:constraint-layout:1.1.3] C:\Users\codyj\.gradle\caches\transforms-1\files-1.1\constraint-layout-1.1.3.aar\4922d374d591449569508a18ee787220\AndroidManifest.xml:5:5-7:41
MERGED from [com.android.support:support-fragment:28.0.0] C:\Users\codyj\.gradle\caches\transforms-1\files-1.1\support-fragment-28.0.0.aar\6cfc26de441f6226e5e221243318ea8b\AndroidManifest.xml:20:5-44
MERGED from [com.android.support:support-fragment:28.0.0] C:\Users\codyj\.gradle\caches\transforms-1\files-1.1\support-fragment-28.0.0.aar\6cfc26de441f6226e5e221243318ea8b\AndroidManifest.xml:20:5-44
MERGED from [com.android.support:animated-vector-drawable:28.0.0] C:\Users\codyj\.gradle\caches\transforms-1\files-1.1\animated-vector-drawable-28.0.0.aar\dfa506eb639a59cbfbfccd93abee171e\AndroidManifest.xml:20:5-44
MERGED from [com.android.support:animated-vector-drawable:28.0.0] C:\Users\codyj\.gradle\caches\transforms-1\files-1.1\animated-vector-drawable-28.0.0.aar\dfa506eb639a59cbfbfccd93abee171e\AndroidManifest.xml:20:5-44
MERGED from [com.android.support:support-core-ui:28.0.0] C:\Users\codyj\.gradle\caches\transforms-1\files-1.1\support-core-ui-28.0.0.aar\ab6bb5067992543ab3de01bc0267f78a\AndroidManifest.xml:20:5-44
MERGED from [com.android.support:support-core-ui:28.0.0] C:\Users\codyj\.gradle\caches\transforms-1\files-1.1\support-core-ui-28.0.0.aar\ab6bb5067992543ab3de01bc0267f78a\AndroidManifest.xml:20:5-44
MERGED from [com.android.support:support-core-utils:28.0.0] C:\Users\codyj\.gradle\caches\transforms-1\files-1.1\support-core-utils-28.0.0.aar\86a42006d4e0431b008c34e953db8235\AndroidManifest.xml:20:5-44
MERGED from [com.android.support:support-core-utils:28.0.0] C:\Users\codyj\.gradle\caches\transforms-1\files-1.1\support-core-utils-28.0.0.aar\86a42006d4e0431b008c34e953db8235\AndroidManifest.xml:20:5-44
MERGED from [com.android.support:support-vector-drawable:28.0.0] C:\Users\codyj\.gradle\caches\transforms-1\files-1.1\support-vector-drawable-28.0.0.aar\cffb7158842bb1a00f1804ac0614353d\AndroidManifest.xml:20:5-44
MERGED from [com.android.support:support-vector-drawable:28.0.0] C:\Users\codyj\.gradle\caches\transforms-1\files-1.1\support-vector-drawable-28.0.0.aar\cffb7158842bb1a00f1804ac0614353d\AndroidManifest.xml:20:5-44
MERGED from [com.android.support:loader:28.0.0] C:\Users\codyj\.gradle\caches\transforms-1\files-1.1\loader-28.0.0.aar\bf0d32a0a14a5f901f7c604e51033e8c\AndroidManifest.xml:20:5-44
MERGED from [com.android.support:loader:28.0.0] C:\Users\codyj\.gradle\caches\transforms-1\files-1.1\loader-28.0.0.aar\bf0d32a0a14a5f901f7c604e51033e8c\AndroidManifest.xml:20:5-44
MERGED from [com.android.support:viewpager:28.0.0] C:\Users\codyj\.gradle\caches\transforms-1\files-1.1\viewpager-28.0.0.aar\387bb0e51759280cb3f2f636662c8136\AndroidManifest.xml:20:5-44
MERGED from [com.android.support:viewpager:28.0.0] C:\Users\codyj\.gradle\caches\transforms-1\files-1.1\viewpager-28.0.0.aar\387bb0e51759280cb3f2f636662c8136\AndroidManifest.xml:20:5-44
MERGED from [com.android.support:coordinatorlayout:28.0.0] C:\Users\codyj\.gradle\caches\transforms-1\files-1.1\coordinatorlayout-28.0.0.aar\9bae028c7aa26ac336c3456479fc8f23\AndroidManifest.xml:20:5-44
MERGED from [com.android.support:coordinatorlayout:28.0.0] C:\Users\codyj\.gradle\caches\transforms-1\files-1.1\coordinatorlayout-28.0.0.aar\9bae028c7aa26ac336c3456479fc8f23\AndroidManifest.xml:20:5-44
MERGED from [com.android.support:drawerlayout:28.0.0] C:\Users\codyj\.gradle\caches\transforms-1\files-1.1\drawerlayout-28.0.0.aar\11ca9fa66fe899b5332cff31763a859b\AndroidManifest.xml:20:5-44
MERGED from [com.android.support:drawerlayout:28.0.0] C:\Users\codyj\.gradle\caches\transforms-1\files-1.1\drawerlayout-28.0.0.aar\11ca9fa66fe899b5332cff31763a859b\AndroidManifest.xml:20:5-44
MERGED from [com.android.support:slidingpanelayout:28.0.0] C:\Users\codyj\.gradle\caches\transforms-1\files-1.1\slidingpanelayout-28.0.0.aar\72b45bfbded3050d74c3660bdb19ae86\AndroidManifest.xml:20:5-44
MERGED from [com.android.support:slidingpanelayout:28.0.0] C:\Users\codyj\.gradle\caches\transforms-1\files-1.1\slidingpanelayout-28.0.0.aar\72b45bfbded3050d74c3660bdb19ae86\AndroidManifest.xml:20:5-44
MERGED from [com.android.support:customview:28.0.0] C:\Users\codyj\.gradle\caches\transforms-1\files-1.1\customview-28.0.0.aar\b3faa65e2eb771ceb5bbb8b34bb505bf\AndroidManifest.xml:20:5-44
MERGED from [com.android.support:customview:28.0.0] C:\Users\codyj\.gradle\caches\transforms-1\files-1.1\customview-28.0.0.aar\b3faa65e2eb771ceb5bbb8b34bb505bf\AndroidManifest.xml:20:5-44
MERGED from [com.android.support:swiperefreshlayout:28.0.0] C:\Users\codyj\.gradle\caches\transforms-1\files-1.1\swiperefreshlayout-28.0.0.aar\40516c3439806efc3f4526980f675a6d\AndroidManifest.xml:20:5-44
MERGED from [com.android.support:swiperefreshlayout:28.0.0] C:\Users\codyj\.gradle\caches\transforms-1\files-1.1\swiperefreshlayout-28.0.0.aar\40516c3439806efc3f4526980f675a6d\AndroidManifest.xml:20:5-44
MERGED from [com.android.support:asynclayoutinflater:28.0.0] C:\Users\codyj\.gradle\caches\transforms-1\files-1.1\asynclayoutinflater-28.0.0.aar\9502e4f616d233b75540d3341e004f99\AndroidManifest.xml:20:5-44
MERGED from [com.android.support:asynclayoutinflater:28.0.0] C:\Users\codyj\.gradle\caches\transforms-1\files-1.1\asynclayoutinflater-28.0.0.aar\9502e4f616d233b75540d3341e004f99\AndroidManifest.xml:20:5-44
MERGED from [com.android.support:support-compat:28.0.0] C:\Users\codyj\.gradle\caches\transforms-1\files-1.1\support-compat-28.0.0.aar\58febeedaf49645857a885d3abfe2077\AndroidManifest.xml:20:5-44
MERGED from [com.android.support:support-compat:28.0.0] C:\Users\codyj\.gradle\caches\transforms-1\files-1.1\support-compat-28.0.0.aar\58febeedaf49645857a885d3abfe2077\AndroidManifest.xml:20:5-44
MERGED from [com.android.support:versionedparcelable:28.0.0] C:\Users\codyj\.gradle\caches\transforms-1\files-1.1\versionedparcelable-28.0.0.aar\7594fbb4b5618c246d8558190a2293b5\AndroidManifest.xml:20:5-44
MERGED from [com.android.support:versionedparcelable:28.0.0] C:\Users\codyj\.gradle\caches\transforms-1\files-1.1\versionedparcelable-28.0.0.aar\7594fbb4b5618c246d8558190a2293b5\AndroidManifest.xml:20:5-44
MERGED from [com.android.support:cursoradapter:28.0.0] C:\Users\codyj\.gradle\caches\transforms-1\files-1.1\cursoradapter-28.0.0.aar\ebc68006501ab2e0e2136803f11a0e33\AndroidManifest.xml:20:5-44
MERGED from [com.android.support:cursoradapter:28.0.0] C:\Users\codyj\.gradle\caches\transforms-1\files-1.1\cursoradapter-28.0.0.aar\ebc68006501ab2e0e2136803f11a0e33\AndroidManifest.xml:20:5-44
MERGED from [android.arch.lifecycle:runtime:1.1.1] C:\Users\codyj\.gradle\caches\transforms-1\files-1.1\runtime-1.1.1.aar\8fec08b82695614b02165717a25abb4d\AndroidManifest.xml:20:5-44
MERGED from [android.arch.lifecycle:runtime:1.1.1] C:\Users\codyj\.gradle\caches\transforms-1\files-1.1\runtime-1.1.1.aar\8fec08b82695614b02165717a25abb4d\AndroidManifest.xml:20:5-44
MERGED from [com.android.support:documentfile:28.0.0] C:\Users\codyj\.gradle\caches\transforms-1\files-1.1\documentfile-28.0.0.aar\20b6c96cf511ea2b6797996690792181\AndroidManifest.xml:20:5-44
MERGED from [com.android.support:documentfile:28.0.0] C:\Users\codyj\.gradle\caches\transforms-1\files-1.1\documentfile-28.0.0.aar\20b6c96cf511ea2b6797996690792181\AndroidManifest.xml:20:5-44
MERGED from [com.android.support:localbroadcastmanager:28.0.0] C:\Users\codyj\.gradle\caches\transforms-1\files-1.1\localbroadcastmanager-28.0.0.aar\bf0d4eb4e613215f88a7be638c35cc28\AndroidManifest.xml:20:5-44
MERGED from [com.android.support:localbroadcastmanager:28.0.0] C:\Users\codyj\.gradle\caches\transforms-1\files-1.1\localbroadcastmanager-28.0.0.aar\bf0d4eb4e613215f88a7be638c35cc28\AndroidManifest.xml:20:5-44
MERGED from [com.android.support:print:28.0.0] C:\Users\codyj\.gradle\caches\transforms-1\files-1.1\print-28.0.0.aar\6367716889f1f39d407abb95d5136e46\AndroidManifest.xml:20:5-44
MERGED from [com.android.support:print:28.0.0] C:\Users\codyj\.gradle\caches\transforms-1\files-1.1\print-28.0.0.aar\6367716889f1f39d407abb95d5136e46\AndroidManifest.xml:20:5-44
MERGED from [android.arch.lifecycle:viewmodel:1.1.1] C:\Users\codyj\.gradle\caches\transforms-1\files-1.1\viewmodel-1.1.1.aar\7370f606a2ec2ae1eb8ce780230a58b9\AndroidManifest.xml:20:5-44
MERGED from [android.arch.lifecycle:viewmodel:1.1.1] C:\Users\codyj\.gradle\caches\transforms-1\files-1.1\viewmodel-1.1.1.aar\7370f606a2ec2ae1eb8ce780230a58b9\AndroidManifest.xml:20:5-44
MERGED from [android.arch.lifecycle:livedata:1.1.1] C:\Users\codyj\.gradle\caches\transforms-1\files-1.1\livedata-1.1.1.aar\821753ee1b0feb61ee5c2665fa06bbf2\AndroidManifest.xml:20:5-44
MERGED from [android.arch.lifecycle:livedata:1.1.1] C:\Users\codyj\.gradle\caches\transforms-1\files-1.1\livedata-1.1.1.aar\821753ee1b0feb61ee5c2665fa06bbf2\AndroidManifest.xml:20:5-44
MERGED from [android.arch.lifecycle:livedata-core:1.1.1] C:\Users\codyj\.gradle\caches\transforms-1\files-1.1\livedata-core-1.1.1.aar\c15146a2327f3869e6d059e8499e032e\AndroidManifest.xml:20:5-44
MERGED from [android.arch.lifecycle:livedata-core:1.1.1] C:\Users\codyj\.gradle\caches\transforms-1\files-1.1\livedata-core-1.1.1.aar\c15146a2327f3869e6d059e8499e032e\AndroidManifest.xml:20:5-44
MERGED from [android.arch.core:runtime:1.1.1] C:\Users\codyj\.gradle\caches\transforms-1\files-1.1\runtime-1.1.1.aar\bd321d740eb6b8b2cfaf906ba580a89f\AndroidManifest.xml:20:5-44
MERGED from [android.arch.core:runtime:1.1.1] C:\Users\codyj\.gradle\caches\transforms-1\files-1.1\runtime-1.1.1.aar\bd321d740eb6b8b2cfaf906ba580a89f\AndroidManifest.xml:20:5-44
MERGED from [com.android.support:interpolator:28.0.0] C:\Users\codyj\.gradle\caches\transforms-1\files-1.1\interpolator-28.0.0.aar\441cee68d2aa0440a40f0a85f69a834f\AndroidManifest.xml:20:5-44
MERGED from [com.android.support:interpolator:28.0.0] C:\Users\codyj\.gradle\caches\transforms-1\files-1.1\interpolator-28.0.0.aar\441cee68d2aa0440a40f0a85f69a834f\AndroidManifest.xml:20:5-44
INJECTED from C:\Users\codyj\Desktop\school-files\sem2\Android\Week 5\app\src\main\AndroidManifest.xml
INJECTED from C:\Users\codyj\Desktop\school-files\sem2\Android\Week 5\app\src\main\AndroidManifest.xml
	android:targetSdkVersion
		INJECTED from C:\Users\codyj\Desktop\school-files\sem2\Android\Week 5\app\src\main\AndroidManifest.xml
		ADDED from C:\Users\codyj\Desktop\school-files\sem2\Android\Week 5\app\src\main\AndroidManifest.xml
		INJECTED from C:\Users\codyj\Desktop\school-files\sem2\Android\Week 5\app\src\main\AndroidManifest.xml
	android:minSdkVersion
		INJECTED from C:\Users\codyj\Desktop\school-files\sem2\Android\Week 5\app\src\main\AndroidManifest.xml
		ADDED from C:\Users\codyj\Desktop\school-files\sem2\Android\Week 5\app\src\main\AndroidManifest.xml
		INJECTED from C:\Users\codyj\Desktop\school-files\sem2\Android\Week 5\app\src\main\AndroidManifest.xml
